-168 -168 640
992
-240 -176 88 -184 272
-184 -136 -184 -104 352
-152 -48 776
-32 56 -128 -232 512
-88 896
-40 -184 -128 -240 -144 216
-176 -48 -232 -64 -24 -16 120 -192 56
-40 168 -216 544
128 -40 80 -80 -240 384
