992
200 -40 -48 680
48 -96 72 -48 -56 632
-8 -8 -8 -8 -8 -8 -8 -8 -8 -8 -8 -8 -8 -8 -8 -8 -8 -8 -8 -8 -8 -8 -8 -8 -8 -8 -8 -8 -8 -8 -8 -8 -8 -8 -8 -8 -8 -8 -8 -8 -8 -8 -8 -8 -8 -8 -8 -8 -8 -8 -8 -8 -8 -8 -8 -8 -8 -8 -8 -8 -8 -16
-992
-64 40 -48 -56 752
-48 40 -32 40 -48 744
-64 96 -56 72 -48 616
992
992
992
-80 80 -80 728
96 -96 72 -24 672
-96 104 -112 656
144 -80 752
-992
